Tarea1_Ricardo_Garbanzo
…
consumo <- filter(
  longer,
  longer$Indicador == "Consumo de energa renovable (% del consumo total de energa final)"
)

grafico_A <- consumo %>% filter(Pais %in% c("Canada","Paraguay", "Peru", "China"))

grafico_A$Year <- gsub("[a-zA-Z ]", "", grafico_A$Year)
grafico_A$Year <- as.factor(grafico_A$Year)
grafico_A

## # A tibble: 104 x 5
##    Pais   Codigo.Pais Indicador                                 Year  Porcentaje
##    <fct>  <fct>       <fct>                                     <fct>      <dbl>
##  1 Canada CAN         Consumo de energa renovable (% del cons~ 1990        22.0
##  2 Canada CAN         Consumo de energa renovable (% del cons~ 1991        22.2
##  3 Canada CAN         Consumo de energa renovable (% del cons~ 1992        21.9
##  4 Canada CAN         Consumo de energa renovable (% del cons~ 1993        21.8
##  5 Canada CAN         Consumo de energa renovable (% del cons~ 1994        21.7
##  6 Canada CAN         Consumo de energa renovable (% del cons~ 1995        21.9
##  7 Canada CAN         Consumo de energa renovable (% del cons~ 1996        21.6
##  8 Canada CAN         Consumo de energa renovable (% del cons~ 1997        21.3
##  9 Canada CAN         Consumo de energa renovable (% del cons~ 1998        21.5
## 10 Canada CAN         Consumo de energa renovable (% del cons~ 1999        21.7
## # ... with 94 more rows
…
suma_P <- rename(
  suma_P, 
  "Repitentes" = "Cantidad de Estudiantes que repitieron", 
  "Duracion en primaria" = "Duracion de la educacion primaria", 
  "Alfabetizacion mayores a 15" = "Porcentaje de alfabetizacion de adultos para la poblacion mayor de 15 aos",
  "% PIB en educacion primaria" = "Gasto publico en educacion primaria como porcentaje del PIB",
  "Gasto educacion en millones USD" = "Gasto publico bruto en educacion primaria en millones de dolares",
  "% matricula" = "Porcentaje de matricula",
  "% no escolarizados" = "Porcentaje de nios no escolarizados",
  "% desercion" = "Porcentaje de desercion"
)
suma_P

## # A tibble: 226 x 10
##    pais  Repitentes `Duracion en pr~ `% desercion` `Alfabetizacion~
##    <fct>      <dbl>            <dbl>         <dbl>            <dbl>
##  1 Togo     128150.                6        13.3               9.11
##  2 India    975435.                5         6.71             10.6 
##  3 Mala~    220894.                6         6.56             18.2 
##  4 Solo~      6730.                6        21.0              NA   
##  5 Ghana     65531.                6         7.10             11.3 
##  6 Moro~    343969.                6         5.89             10.5 
##  7 Libe~     17423.                6         7.65              6.90
##  8 Germ~      8854.                4        NA                NA   
##  9 Anti~       126.                7        NA                14.1 
## 10 Chile     38915.                6         0.273            41.4 
## # ... with 216 more rows, and 5 more variables: `% matricula` <dbl>, `% no
## #   escolarizados` <dbl>, `Poblacion en edad escolar` <dbl>, `% PIB en
## #   educacion primaria` <dbl>, `Gasto educacion en millones USD` <dbl>
…
